5 DATA/STAT 234 Review
…
Exercise 3.

hpi_df <- hpi_df |>
  mutate(Age = case_when(LifeExpectancy >= 80 & LifeExpectancy < 90 ~ "80s", 
                         LifeExpectancy >= 70 & LifeExpectancy < 80 ~ "70s",
                         LifeExpectancy < 70 ~ "Below 70"))

Exercise 4.

hpi_df |>
  arrange(desc(LifeExpectancy))

# A tibble: 151 × 13
   HPIRank Country     LifeExpectancy Wellbeing HappyLifeYears Footprint
     <dbl> <chr>                <dbl>     <dbl>          <dbl>     <dbl>
 1      45 Japan                 83.4      6.06           58.0      4.17
 2     102 Hong Kong             82.8      5.64           54.9      5.81
 3      34 Switzerland           82.3      7.52           66.5      5.01
 4      76 Australia             81.9      7.41           65.5      6.68
 5      51 Italy                 81.9      6.35           58.8      4.52
 6      88 Iceland               81.8      6.89           62.1      6.54
 7      15 Israel                81.6      7.36           64.9      3.96
 8      50 France                81.5      6.80           61.3      4.91
 9      62 Spain                 81.4      6.19           57.4      4.74
10      52 Sweden                81.4      7.50           65.6      5.71
# ℹ 141 more rows
# ℹ 7 more variables: HappyPlanetIndex <dbl>, Population <dbl>,
#   GDPcapita <dbl>, GovernanceRank <chr>, Region <chr>, WF_ratio <dbl>,
#   Age <chr>

Exercise 5.

hpi_df |>
  select(Country, LifeExpectancy)

# A tibble: 151 × 2
   Country     LifeExpectancy
   <chr>                <dbl>
 1 Afghanistan           48.7
 2 Albania               76.9
 3 Algeria               73.1
 4 Angola                51.1
 5 Argentina             75.9
 6 Armenia               74.2
 7 Australia             81.9
 8 Austria               80.9
 9 Azerbaijan            70.7
10 Bahrain               75.1
# ℹ 141 more rows
…
Exercise 7.

hpi_df |>
  filter(Region == "Western World")

# A tibble: 24 × 13
   HPIRank Country   LifeExpectancy Wellbeing HappyLifeYears Footprint
     <dbl> <chr>              <dbl>     <dbl>          <dbl>     <dbl>
 1      76 Australia           81.9      7.41           65.5      6.68
 2      48 Austria             80.9      7.35           64.3      5.29
 3     107 Belgium             80        6.85           60.5      7.11
 4      65 Canada              81        7.65           66.3      6.43
 5      59 Cyprus              79.6      6.39           57.4      4.44
 6     110 Denmark             78.8      7.77           65.2      8.25
 7      70 Finland             80        7.39           63.9      6.21
 8      50 France              81.5      6.80           61.3      4.91
 9      46 Germany             80.4      6.72           60.0      4.57
10      83 Greece              79.9      5.84           54.2      4.92
# ℹ 14 more rows
# ℹ 7 more variables: HappyPlanetIndex <dbl>, Population <dbl>,
#   GDPcapita <dbl>, GovernanceRank <chr>, Region <chr>, WF_ratio <dbl>,
#   Age <chr>
…
wiki_tibble <- as_tibble(wiki_hot_100s) |> ## convert billboard data to tibble
  mutate(year = as.numeric(year),
         no = as.integer(no)) ## change variable types to match with scraped data

hot100_df <- bind_rows(wiki_tibble, df_2017_present)
hot100_df

# A tibble: 7,199 × 4
      no title                     artist               year
   <int> <chr>                     <chr>               <dbl>
 1     1 Theme from A Summer Place Percy Faith          1960
 2     2 He'll Have to Go          Jim Reeves           1960
 3     3 Cathy's Clown             The Everly Brothers  1960
 4     4 Running Bear              Johnny Preston       1960
 5     5 Teen Angel                Mark Dinning         1960
 6     6 I'm Sorry                 Brenda Lee           1960
 7     7 It's Now or Never         Elvis Presley        1960
 8     8 Handy Man                 Jimmy Jones          1960
 9     9 Stuck on You              Elvis Presley        1960
10    10 The Twist                 Chubby Checker       1960
# ℹ 7,189 more rows
…
